Track URI,Track Name,Artist URI(s),Artist Name(s),Album URI,Album Name,Album Artist URI(s),Album Artist Name(s),Album Release Date,Album Image URL,Disc Number,Track Number,Track Duration (ms),Track Preview URL,Explicit,Popularity,ISRC,Added At,Artist Genres,Danceability,Energy,Key,Loudness,Mode,Speechiness,Acousticness,Instrumentalness,Liveness,Valence,Tempo,Time Signature
spotify:track:5lplIcoCUcY3i8Ok1G3BKs,4x4 merco,spotify:artist:76BgGr8Oq2d63hustF8FPy,Rever,spotify:album:2pNhb5mUfUTy1K1a3SD2b9,4x4 merco,spotify:artist:76BgGr8Oq2d63hustF8FPy,Rever,2023-08-10,https://i.scdn.co/image/ab67616d0000b2734d7090d61b119218c2f11e29,1,1,140360,https://p.scdn.co/mp3-preview/7b16e0df933398443fc722776d49914160fa4e78?cid=9b4841930e9e4ee7bf12fb4d1cc5b572,True,49,QZNWZ2305431,2024-11-27T12:37:42.940637,,0.669,0.478,4,-11.006,0,0.0506,0.25,0.0,0.0871,0.843,143.071,4
spotify:track:6YNDMh8irpUdEjShw4MvPZ,Mensonge,spotify:artist:76BgGr8Oq2d63hustF8FPy,Rever,spotify:album:1NPZd3l5k1FpDVnUE0dtT5,Mensonge,spotify:artist:76BgGr8Oq2d63hustF8FPy,Rever,2023-07-06,https://i.scdn.co/image/ab67616d0000b273212e0c8f343dc3a30cb04135,1,1,154191,https://p.scdn.co/mp3-preview/f11d2bf5aeeef3b052d2a49dfc54c5c3ebb41ee8?cid=9b4841930e9e4ee7bf12fb4d1cc5b572,False,43,QZNWQ2332289,2024-11-27T12:37:43.044530,,0.815,0.439,11,-8.857,0,0.0463,0.496,1.22e-05,0.274,0.923,132.006,4
spotify:track:6OcthE01B0zMWz5CnTv8iI,Le Nord,spotify:artist:6HCBnyTBSLdb3TFn2ayulY,Leto,spotify:album:71hJaWYEMcG97MM2Ih1A4U,100 visages,spotify:artist:6HCBnyTBSLdb3TFn2ayulY,Leto,2020-08-28,https://i.scdn.co/image/ab67616d0000b27306d27577ee25598cadb001df,1,15,191906,https://p.scdn.co/mp3-preview/d191860080ffc8e0db99712459d21ee3cbd6e24e?cid=9b4841930e9e4ee7bf12fb4d1cc5b572,True,39,FRZ042000775,2024-11-27T12:37:43.157010,"french hip hop, pop urbaine, rap francais",0.569,0.367,4,-10.715,1,0.0352,0.788,0.0,0.103,0.537,156.022,4
spotify:track:0f23HQMuni0IBfDial1uYL,Acolyte (feat. Dadju & Ninho),"spotify:artist:5W9ShLREoRMuXqSSYMeHqk, spotify:artist:6Te49r3A6f5BiIgBRxH7FH, spotify:artist:4sbXXFzEWJY2zsZjelerjX","Gianni, Ninho, Dadju",spotify:album:3Sz06QgI5dxeKNkoNqJjCi,Acolyte (feat. Dadju & Ninho),"spotify:artist:5W9ShLREoRMuXqSSYMeHqk, spotify:artist:6Te49r3A6f5BiIgBRxH7FH","Gianni, Ninho",2023-03-16,https://i.scdn.co/image/ab67616d0000b2739582575db5c95abe8c970fb3,1,1,169986,https://p.scdn.co/mp3-preview/49267bee2eb5989c261dff4c078abe364256974f?cid=9b4841930e9e4ee7bf12fb4d1cc5b572,True,42,FR9W12305853,2024-11-27T12:37:43.275933,"cloud rap francais, french hip hop, rap francais",0.775,0.792,8,-4.686,0,0.102,0.203,0.0,0.128,0.71,88.006,4
spotify:track:2XDA9Zt9QI6vV3E1d7v1XS,J'ai mal,spotify:artist:7IlRNXHjoOCgEAWN5qYksg,Aya Nakamura,spotify:album:2sDLGR5LQ1pRmyCOT0alhN,DNK,spotify:artist:7IlRNXHjoOCgEAWN5qYksg,Aya Nakamura,2023-01-27,https://i.scdn.co/image/ab67616d0000b27342093925d784c0ef5e6f3705,1,9,153013,https://p.scdn.co/mp3-preview/f09e87c343bcf77603980c7c39b02ee658828115?cid=9b4841930e9e4ee7bf12fb4d1cc5b572,False,44,FRZ042201583,2024-11-27T12:37:43.375987,"basshall, pop urbaine, r&b francais",0.691,0.256,5,-10.177,0,0.0651,0.874,0.0,0.0826,0.519,130.087,4
spotify:track:0qvOa81HDkZs2c07K6XtCE,Nsiti,spotify:artist:473J09XfjAXYQPbYQQS9Ml,Oussama,spotify:album:2d3GvYdZTh6DnvdOnO1ObG,Nsiti,spotify:artist:473J09XfjAXYQPbYQQS9Ml,Oussama,2022-12-16,https://i.scdn.co/image/ab67616d0000b2738f76555436af71798a450e84,1,1,172022,https://p.scdn.co/mp3-preview/97848b11a3cd6add2d339a09e953100d585706a1?cid=9b4841930e9e4ee7bf12fb4d1cc5b572,False,52,QZMER2297203,2024-11-27T12:37:43.482986,,0.719,0.482,7,-10.153,1,0.0612,0.817,0.0,0.0756,0.711,135.084,4
spotify:track:1U13A13YafzmqthKXiul91,J'élimine,spotify:artist:4krMq8pXkLVTGplpYgHlnV,Ronisia,spotify:album:4eHStY9TfFmHRV8iQCAgNo,J'élimine,spotify:artist:4krMq8pXkLVTGplpYgHlnV,Ronisia,2022-08-26,https://i.scdn.co/image/ab67616d0000b27303d53456d28e2fedd08c0eb9,1,1,137229,https://p.scdn.co/mp3-preview/8bd4080038cffbc38a3edb9df7c025bfa3315622?cid=9b4841930e9e4ee7bf12fb4d1cc5b572,False,31,FRZ052200386,2024-11-27T12:37:43.592449,r&b francais,0.64,0.419,9,-7.235,0,0.252,0.325,0.0,0.0787,0.508,175.886,4
spotify:track:6jKxPa4mGw3fmWnOws96Tw,Je sais,spotify:artist:7CW7QdOgRStOg7JktRuZ3E,Imen Es,spotify:album:3VZimwgQFvrj0TePHHP5DK,Je sais,spotify:artist:7CW7QdOgRStOg7JktRuZ3E,Imen Es,2019-02-25,https://i.scdn.co/image/ab67616d0000b2732080a6b6c2ae35ebd9c731d2,1,1,150543,,False,32,FR9W11903467,2024-11-27T12:37:43.688168,"pop urbaine, r&b francais",0.814,0.69,11,-5.173,0,0.166,0.00237,0.0242,0.107,0.755,93.01,4
spotify:track:42Rapmc2bbFCf9LqFDu3RI,À Deux,spotify:artist:7gU9VyFRN3JWPJ5oHOil60,Tayc,spotify:album:5DSbqGiJ1uIZDLfYLutiHD,H E L I O S.,spotify:artist:7gU9VyFRN3JWPJ5oHOil60,Tayc,2018-07-27,https://i.scdn.co/image/ab67616d0000b2736b9882c9098d30c0126b6eab,1,12,222539,https://p.scdn.co/mp3-preview/2778d8f1644e1ba26419c548f001b736c9bd380d?cid=9b4841930e9e4ee7bf12fb4d1cc5b572,False,54,TCADS1898893,2024-11-27T12:37:43.799936,"pop urbaine, r&b francais",0.707,0.661,1,-7.416,1,0.0746,0.249,0.0,0.0651,0.446,94.965,4
spotify:track:2d4FpL64mJJPAAYi9cjs7d,Divina,spotify:artist:7gU9VyFRN3JWPJ5oHOil60,Tayc,spotify:album:33mqJ3VWY5GDecb0ILXGdj,Alchemy,spotify:artist:7gU9VyFRN3JWPJ5oHOil60,Tayc,2017-05-30,https://i.scdn.co/image/ab67616d0000b273f7cf395d1d0eecab85e95721,1,5,281861,https://p.scdn.co/mp3-preview/41d1f2d59e3112783067518e625ac672ecd15786?cid=9b4841930e9e4ee7bf12fb4d1cc5b572,False,51,TCADA1787120,2024-11-27T12:37:43.932707,"pop urbaine, r&b francais",0.684,0.562,5,-8.311,0,0.191,0.362,0.0,0.111,0.496,119.822,4
spotify:track:5k2V0K1UfxCYAw4WoVil4s,Mental,"spotify:artist:2EFpb61Lpi0l5ldOiqbZkK, spotify:artist:4krMq8pXkLVTGplpYgHlnV","Landy, Ronisia",spotify:album:6nFWMF2JxLb26eIoyOtFTR,BRAVE,spotify:artist:2EFpb61Lpi0l5ldOiqbZkK,Landy,2023-02-24,https://i.scdn.co/image/ab67616d0000b273555b1343592ff69545fb2f40,1,11,157093,https://p.scdn.co/mp3-preview/12a994ef6bc5f5d0363860194ebe4590d727d2ad?cid=9b4841930e9e4ee7bf12fb4d1cc5b572,True,41,FR10S2387271,2024-11-27T12:37:44.082171,"french hip hop, pop urbaine, rap francais",0.793,0.682,6,-4.831,0,0.0869,0.229,0.0,0.0984,0.36,96.021,4
spotify:track:0f3kDed9xgBRzlwqpRLqqt,Ex,spotify:artist:4ZPLdCBeYJBAjsLTWRcZEs,Emkal,spotify:album:4IVDj8BrwWaqflUrqU61MW,Ex,spotify:artist:4ZPLdCBeYJBAjsLTWRcZEs,Emkal,2020-12-23,https://i.scdn.co/image/ab67616d0000b2732a03a6d9a0b9cfcd15d88fb0,1,1,202318,https://p.scdn.co/mp3-preview/0e8047e5dfafb2e3f4f3c64a8750302a2144b896?cid=9b4841930e9e4ee7bf12fb4d1cc5b572,True,52,DGA062014895,2024-11-27T12:37:44.174244,"r&b francais, rap marseille",0.537,0.547,5,-8.065,0,0.26,0.405,0.0,0.106,0.46,89.917,4
spotify:track:0f3kDed9xgBRzlwqpRLqqt,Ex,spotify:artist:4ZPLdCBeYJBAjsLTWRcZEs,Emkal,spotify:album:4IVDj8BrwWaqflUrqU61MW,Ex,spotify:artist:4ZPLdCBeYJBAjsLTWRcZEs,Emkal,2020-12-23,https://i.scdn.co/image/ab67616d0000b2732a03a6d9a0b9cfcd15d88fb0,1,1,202318,https://p.scdn.co/mp3-preview/0e8047e5dfafb2e3f4f3c64a8750302a2144b896?cid=9b4841930e9e4ee7bf12fb4d1cc5b572,True,52,DGA062014895,2024-11-27T12:37:44.280289,"r&b francais, rap marseille",0.537,0.547,5,-8.065,0,0.26,0.405,0.0,0.106,0.46,89.917,4
spotify:track:3rouzfCt5Z4JijtpY2MGfc,Coucou,"spotify:artist:6AmKZ6kQdFR64iIiUsRMHT, spotify:artist:6Te49r3A6f5BiIgBRxH7FH","Graya, Ninho",spotify:album:59KyUXbOVTyISmNxRrqJHa,Réincarnation,spotify:artist:6AmKZ6kQdFR64iIiUsRMHT,Graya,2022-11-18,https://i.scdn.co/image/ab67616d0000b2735bd92a4074436c2ebe9a3da1,1,6,136800,https://p.scdn.co/mp3-preview/08b6ca129d8a5c9ea4c5b1cb1f2c543ca1e00579?cid=9b4841930e9e4ee7bf12fb4d1cc5b572,True,41,DGA052224835,2024-11-27T12:37:44.375984,"french hip hop, pop urbaine, rap francais, rap marseille",0.529,0.832,5,-4.699,0,0.272,0.497,0.0,0.16,0.484,100.314,4
spotify:track:0xtGNYlteESbp5j06nPTrd,Elle fait que m'téma,spotify:artist:7x3eTVPlBiPjXHn3qotY86,KeBlack,spotify:album:29SamSlGtFHK8gMlHxm9ef,Premier étage,spotify:artist:7x3eTVPlBiPjXHn3qotY86,KeBlack,2017-01-27,https://i.scdn.co/image/ab67616d0000b273b35be4cbd85e88ba2f474449,1,16,187186,https://p.scdn.co/mp3-preview/a88395a4046ad4ed108affdcd62ffbf11b554946?cid=9b4841930e9e4ee7bf12fb4d1cc5b572,False,51,FRU781601005,2024-11-27T12:37:44.475172,"french hip hop, pop urbaine, r&b francais",0.854,0.4,7,-9.276,0,0.156,0.0258,3.06e-06,0.0749,0.302,103.065,4
spotify:track:3V9bGehJGhXsJVgXac8XLC,Johnny,spotify:artist:5dDL6ReckbbD5JBnZdobv6,Youka,spotify:album:3wVLaUWUCfeJfptTS2T1de,Utopia,spotify:artist:5dDL6ReckbbD5JBnZdobv6,Youka,2022-07-08,https://i.scdn.co/image/ab67616d0000b273c7fdb0b14e1aac1f485339dc,1,5,166969,https://p.scdn.co/mp3-preview/dac4ac1a9ece2f000ed0bf91dd43b79ef5481a72?cid=9b4841930e9e4ee7bf12fb4d1cc5b572,False,39,TCAGF2258136,2024-11-27T12:37:44.580141,r&b francais,0.689,0.58,4,-10.296,0,0.118,0.56,0.0,0.163,0.286,138.009,4
spotify:track:2JFBYWxcJlt1PubMJYVjc0,Suis-moi (feat. Ninho),"spotify:artist:4krMq8pXkLVTGplpYgHlnV, spotify:artist:6Te49r3A6f5BiIgBRxH7FH","Ronisia, Ninho",spotify:album:5T2XIptVJAJM0KIs6aWxWo,Ronisia,spotify:artist:4krMq8pXkLVTGplpYgHlnV,Ronisia,2022-01-28,https://i.scdn.co/image/ab67616d0000b2736d3ec40bdbcbc5d8f13f4dc7,1,5,175240,https://p.scdn.co/mp3-preview/cd114c7f57db186bba4c76f086a94f3ab724400c?cid=9b4841930e9e4ee7bf12fb4d1cc5b572,False,53,FRZ052100693,2024-11-27T12:37:44.678364,r&b francais,0.805,0.773,10,-3.611,0,0.156,0.372,0.0,0.0908,0.654,100.088,4
spotify:track:2vstagO0hSvw8uqyGYUfZZ,COMME TOI,spotify:artist:3AGggQTwJaSofLcpDlYhV4,Still Fresh,spotify:album:4Y6VubMeZjTmMWB0S2EzRq,AMOUR NOIR 4 SAISONS,spotify:artist:3AGggQTwJaSofLcpDlYhV4,Still Fresh,2022-03-25,https://i.scdn.co/image/ab67616d0000b27314771cc81d80759881f9cae1,1,4,159010,https://p.scdn.co/mp3-preview/132b2384f72938bbe92ab9f4d4da7d200fc2ea1b?cid=9b4841930e9e4ee7bf12fb4d1cc5b572,True,45,FRPJP2100003,2024-11-27T12:37:44.793838,"french hip hop, pop urbaine, r&b francais",0.75,0.476,0,-10.111,0,0.0576,0.67,1.25e-05,0.126,0.55,101.967,4
spotify:track:6EodKeJBTSyCPrYZKOd31s,Une danse,spotify:artist:3AGggQTwJaSofLcpDlYhV4,Still Fresh,spotify:album:3TRT2YQe0DCdwo8E80Xv7W,Coeur noir,spotify:artist:3AGggQTwJaSofLcpDlYhV4,Still Fresh,2017-09-29,https://i.scdn.co/image/ab67616d0000b273e3d70bf44267fbb11ad2d3a5,1,20,194684,https://p.scdn.co/mp3-preview/7837f51a70f7554c2074214d5dc63ae7db7c6bd4?cid=9b4841930e9e4ee7bf12fb4d1cc5b572,True,53,FR96X1650438,2024-11-27T12:37:44.906640,"french hip hop, pop urbaine, r&b francais",0.421,0.498,7,-7.751,1,0.039,0.0205,7.18e-06,0.291,0.384,91.99,4
spotify:track:590mLwj3O9Jg2wc5qOlc44,Bourbier,"spotify:artist:3QCQdyKtg9Yx1rYYnMb7pz, spotify:artist:2XpsF0ZQfBV08auUoRnNJE","Davy One, Liim’s",spotify:album:0923F8kfzpouUmutVzceuH,Prémices,spotify:artist:3QCQdyKtg9Yx1rYYnMb7pz,Davy One,2022-04-29,https://i.scdn.co/image/ab67616d0000b2737980864d43758f9ff25d8d45,1,3,186000,https://p.scdn.co/mp3-preview/7ff7900f876589c8bb49637d2077135a065c118f?cid=9b4841930e9e4ee7bf12fb4d1cc5b572,True,54,TCAGE2200042,2024-11-27T12:37:44.997135,,0.67,0.471,10,-9.553,0,0.197,0.0309,1.63e-05,0.0738,0.527,84.696,5
spotify:track:1B0U2ctIJHYD3TBUuUkfsY,Je te vois (feat. Abou Debeing),"spotify:artist:3AGggQTwJaSofLcpDlYhV4, spotify:artist:2jFnPm8VeSO19i6B8blXB5","Still Fresh, Abou Debeing",spotify:album:3TRT2YQe0DCdwo8E80Xv7W,Coeur noir,spotify:artist:3AGggQTwJaSofLcpDlYhV4,Still Fresh,2017-09-29,https://i.scdn.co/image/ab67616d0000b273e3d70bf44267fbb11ad2d3a5,1,16,205360,https://p.scdn.co/mp3-preview/cdad1253686677de93dba89ba8164d21fd4fd197?cid=9b4841930e9e4ee7bf12fb4d1cc5b572,True,48,FR59R1656156,2024-11-27T12:37:45.093701,"french hip hop, pop urbaine, r&b francais",0.756,0.611,9,-8.307,0,0.267,0.616,4.28e-06,0.104,0.404,98.046,4
spotify:track:5dDM8DvzyErdeKIsVcKI7d,Nous 2,spotify:artist:4uJNQGa3L2frXDxwgouTIw,Franglish,spotify:album:28jxOZWNxs8VARM7kTp6Ln,Glish,spotify:artist:4uJNQGa3L2frXDxwgouTIw,Franglish,2022-10-27,https://i.scdn.co/image/ab67616d0000b27302126b4904afea6636175fb2,1,4,180080,,False,50,FRD8V2201030,2024-11-27T12:37:45.189579,"french hip hop, pop urbaine, r&b francais",0.918,0.329,2,-8.772,0,0.12,0.447,0.0,0.1,0.334,129.942,4
spotify:track:7DfBKw4PYAar1FXOFLqMFE,200 KM/H,"spotify:artist:4krMq8pXkLVTGplpYgHlnV, spotify:artist:5gqmbbfjcikQBzPB5Hv13I","Ronisia, Gazo",spotify:album:6n3BM7djoly8rX6AG9dnFW,Ronisia (Version Deluxe),spotify:artist:4krMq8pXkLVTGplpYgHlnV,Ronisia,2022-12-09,https://i.scdn.co/image/ab67616d0000b27335b50cd2dada3e9f079597f8,1,1,165746,https://p.scdn.co/mp3-preview/6846d6bc28d9d5b41a263b3d8d60beb4e461cf8e?cid=9b4841930e9e4ee7bf12fb4d1cc5b572,False,51,FRZ052200663,2024-11-27T12:37:45.293844,r&b francais,0.657,0.576,9,-6.998,1,0.151,0.399,0.0,0.235,0.559,179.882,4
spotify:track:07ipVC3RBdtLzkKH7SPUhi,American Girl,spotify:artist:2LUi4eKMEFKFM4awgurcSs,4Keus,spotify:album:0RsAwkyKahuD6rdO8HZzyB,À coeur ouvert,spotify:artist:2LUi4eKMEFKFM4awgurcSs,4Keus,2018-09-28,https://i.scdn.co/image/ab67616d0000b273629e7107dc5a4e7a1a445817,1,11,168440,https://p.scdn.co/mp3-preview/363fe44d05dc42014401b998464fbca5fca2c956?cid=9b4841930e9e4ee7bf12fb4d1cc5b572,True,45,FR7U61801186,2024-11-27T12:37:45.391442,"french hip hop, pop urbaine, r&b francais, rap francais",0.768,0.762,9,-4.675,0,0.284,0.341,0.0,0.0799,0.523,102.051,4
spotify:track:5vNRhkKd0yEAg8suGBpjeY,APT.,"spotify:artist:3eVa5w3URK5duf6eyVDbu9, spotify:artist:0du5cEVh5yTK9QJze8zA0C","ROSÉ, Bruno Mars",spotify:album:2IYQwwgxgOIn7t3iF6ufFD,APT.,"spotify:artist:3eVa5w3URK5duf6eyVDbu9, spotify:artist:0du5cEVh5yTK9QJze8zA0C","ROSÉ, Bruno Mars",2024-10-18,https://i.scdn.co/image/ab67616d0000b273ba60245b7725fdc3719027c0,1,1,169917,https://p.scdn.co/mp3-preview/c653a3311fa966337dbcb8b727ebe02d5aa6d2df?cid=9b4841930e9e4ee7bf12fb4d1cc5b572,False,98,USAT22409172,2024-11-27T12:37:45.520812,k-pop,0.777,0.783,0,-4.477,0,0.26,0.0283,0.0,0.355,0.939,149.027,4
spotify:track:37tGmKyKlr8vyt9BVdoWQo,SOIS PAS TIMIDE,spotify:artist:0GOx72r5AAEKRGQFn3xqXK,GIMS,spotify:album:7aJmLrwVq0bK3qHuGcaUbs,SOIS PAS TIMIDE,spotify:artist:0GOx72r5AAEKRGQFn3xqXK,GIMS,2024-07-19,https://i.scdn.co/image/ab67616d0000b273681c4363b12252a4ed10f2fb,1,1,165978,https://p.scdn.co/mp3-preview/2ddef89c08252c331cb023f15dd39f511d55fa07?cid=9b4841930e9e4ee7bf12fb4d1cc5b572,False,75,FR8FB2412100,2024-11-27T12:37:45.614318,"french hip hop, pop urbaine, r&b francais, rap conscient",0.917,0.658,1,-7.253,1,0.0933,0.0896,9.78e-06,0.0733,0.795,127.936,4
spotify:track:3bg2qahpZmsg5wV2EMPXIk,Forever Young,"spotify:artist:1Cs0zKBU1kc0i8ypK3B9ai, spotify:artist:0xliTEbFfy5HQHvsTknTkX, spotify:artist:4npEfmQ6YuiwW1GpUmaq3F","David Guetta, Alphaville, Ava Max",spotify:album:5a450MS1eKGQQAsqgvsZ6J,Forever Young,"spotify:artist:1Cs0zKBU1kc0i8ypK3B9ai, spotify:artist:0xliTEbFfy5HQHvsTknTkX, spotify:artist:4npEfmQ6YuiwW1GpUmaq3F","David Guetta, Alphaville, Ava Max",2024-10-18,https://i.scdn.co/image/ab67616d0000b273417f8c5927888d7ee97cb05a,1,1,156923,https://p.scdn.co/mp3-preview/a47b1ab8552acc16146597026a45aa53806dbd1f?cid=9b4841930e9e4ee7bf12fb4d1cc5b572,False,77,UKWLG2400102,2024-11-27T12:37:45.731254,"big room, dance pop, edm, pop, pop dance",0.558,0.655,0,-5.476,1,0.0379,0.208,0.0,0.0854,0.39,129.89,4
spotify:track:4mNttG8qiVh4BKrMUrUhCI,Minimum ça,spotify:artist:0C1YfsZSxVHgL0Z8bngOTM,Dr. Yaro,spotify:album:60rg9NAmtNCkIcculZeX5n,Minimum ça,spotify:artist:0C1YfsZSxVHgL0Z8bngOTM,Dr. Yaro,2024-08-09,https://i.scdn.co/image/ab67616d0000b273d39b05d217190ce3b8dece9b,1,1,149811,https://p.scdn.co/mp3-preview/64b574cfe40a60cd141f5a43a88af4354e283578?cid=9b4841930e9e4ee7bf12fb4d1cc5b572,False,75,TCAIP2436110,2024-11-27T12:37:45.875925,,0.748,0.733,3,-3.688,0,0.0587,0.665,0.0,0.0733,0.967,115.016,4
spotify:track:6rbgsiBe28janVH7ysQO3a,Rosa,spotify:artist:4TGltjqP0MQxdGeSIrM4es,RIDSA,spotify:album:4PgjK4gAk0R7d4pUTURMvz,Rosa,spotify:artist:4TGltjqP0MQxdGeSIrM4es,RIDSA,2024-07-19,https://i.scdn.co/image/ab67616d0000b27343db3caa8b8348d4188e44f2,1,1,136185,https://p.scdn.co/mp3-preview/df4793ae2b5f13cee0b99b1d3d3e5df4c185ae10?cid=9b4841930e9e4ee7bf12fb4d1cc5b572,False,65,FR8FB2411900,2024-11-27T12:37:45.977650,french pop,0.84,0.743,11,-5.04,1,0.0995,0.25,7.71e-05,0.105,0.719,124.96,4
spotify:track:1y62v08lkqdPTBj7si8tnA,Yamore - Edit Version,"spotify:artist:6Je4hal6B5wiRd46aeswrs, spotify:artist:0VVnWF3KNaa5O7ESohKhAx, spotify:artist:0CX4q2v1TeyeskG7GgAyxI, spotify:artist:0FSasrFTs0AQBrJkcFE6vB, spotify:artist:0Nks3cFWU2a7rooAlFQYgn","MoBlack, Salif Keita, Benja (NL), Franc Fala, Cesária Evora",spotify:album:6V05sU49mttq81gsk1ZA05,Yamore (Edit Version),"spotify:artist:6Je4hal6B5wiRd46aeswrs, spotify:artist:0VVnWF3KNaa5O7ESohKhAx, spotify:artist:0CX4q2v1TeyeskG7GgAyxI","MoBlack, Salif Keita, Benja (NL)",2024-09-20,https://i.scdn.co/image/ab67616d0000b273b373733586194cd396022359,1,1,150000,,False,65,FRUM72401225,2024-11-27T12:37:46.067135,afro house,0.803,0.539,11,-9.663,1,0.0523,0.0106,0.0444,0.0447,0.221,119.995,4
spotify:track:3Vr3zh0r7ALn8VLqCiRR10,Stargazing,spotify:artist:3bO19AOone0ubCsfDXDtYt,Myles Smith,spotify:album:3VNxRarx9HUI5w7DHv0TBj,Stargazing,spotify:artist:3bO19AOone0ubCsfDXDtYt,Myles Smith,2024-05-10,https://i.scdn.co/image/ab67616d0000b27381b12e1a0584e8ea7ba2ae4a,1,1,172533,https://p.scdn.co/mp3-preview/e645f231787fd914d1cc263644dd7839a2260ef7?cid=9b4841930e9e4ee7bf12fb4d1cc5b572,False,88,GBARL2400510,2024-11-27T12:37:46.155669,singer-songwriter pop,0.635,0.601,1,-6.129,0,0.0295,0.246,0.0,0.11,0.332,123.994,4
spotify:track:1edPU5OOn4YCWn9lR0nesC,Passe ton chemin,spotify:artist:2GlEiSHYEKlq9cUYDa9oZb,Lynda,spotify:album:4oZy6v3nyTXCE2pX4Vv8m0,Passe ton chemin,spotify:artist:2GlEiSHYEKlq9cUYDa9oZb,Lynda,2024-06-14,https://i.scdn.co/image/ab67616d0000b273950cfdfba8816aeefbda7603,1,1,169256,https://p.scdn.co/mp3-preview/2ad2cc4610853919273327866bb5891d398d898c?cid=9b4841930e9e4ee7bf12fb4d1cc5b572,False,72,FR8FB2409600,2024-11-27T12:37:46.251374,r&b francais,0.876,0.593,4,-4.169,0,0.388,0.112,0.0,0.0774,0.484,128.017,4
spotify:track:6XjDF6nds4DE2BBbagZol6,Gata Only,"spotify:artist:7CvTknweLr9feJtRGrpDBy, spotify:artist:1Yj5Xey7kTwvZla8sqdsdE","FloyyMenor, Cris Mj",spotify:album:5tSQtQGkrCJx3hoQxmLgfM,Gata Only,"spotify:artist:7CvTknweLr9feJtRGrpDBy, spotify:artist:1Yj5Xey7kTwvZla8sqdsdE","FloyyMenor, Cris Mj",2024-02-02,https://i.scdn.co/image/ab67616d0000b273c4583f3ad76630879a75450a,1,1,222000,https://p.scdn.co/mp3-preview/12ae7f061a9da14a7c1e6a3e21de68365697efe8?cid=9b4841930e9e4ee7bf12fb4d1cc5b572,True,87,QZL382406049,2024-11-27T12:37:46.340718,reggaeton chileno,0.791,0.499,8,-8.472,0,0.0509,0.446,2.41e-05,0.0899,0.669,99.986,4
spotify:track:1pnzctM9itTsKupaQWDQwe,Chaque seconde (feat. M. Pokora),"spotify:artist:07UyhXWf7aDbvCZKhTKCpr, spotify:artist:6euPnGzBlDysAC5ecVguNZ","Pierre Garnier, M. Pokora",spotify:album:6tksgNrY872kjEs4q2v3Um,Chaque seconde (feat. M. Pokora),"spotify:artist:07UyhXWf7aDbvCZKhTKCpr, spotify:artist:6euPnGzBlDysAC5ecVguNZ","Pierre Garnier, M. Pokora",2024-09-20,https://i.scdn.co/image/ab67616d0000b27373505fc77443c37685eb33b5,1,1,165986,https://p.scdn.co/mp3-preview/303f0729760224af602d8a701fd5ca88431843d1?cid=9b4841930e9e4ee7bf12fb4d1cc5b572,False,68,FRZ052400340,2024-11-27T12:37:46.437240,french pop,0.6,0.59,6,-8.589,1,0.0515,0.501,0.0,0.192,0.468,76.03,4
spotify:track:6dOtVTDdiauQNBQEDOtlAB,BIRDS OF A FEATHER,spotify:artist:6qqNVTkY8uBg9cP3Jd7DAH,Billie Eilish,spotify:album:7aJuG4TFXa2hmE4z1yxc3n,HIT ME HARD AND SOFT,spotify:artist:6qqNVTkY8uBg9cP3Jd7DAH,Billie Eilish,2024-05-17,https://i.scdn.co/image/ab67616d0000b27371d62ea7ea8a5be92d3c1f62,1,4,210373,,False,97,USUM72401994,2024-11-27T12:37:46.532843,"art pop, pop",0.747,0.507,2,-10.171,1,0.0358,0.2,0.0608,0.117,0.438,104.978,4
